Time	SOD	Volt	Current	Temp	Signal	Latitude	Longitude	CellID	Power	Distance
1408227731842	80	4016875	0	433	20	37.44717510625589	-122.1605868253538	4818529	0.0	16.3189394034
1408227731923	80	4016875	0	433	22	37.44717510625589	-122.1605868253538	4818529	0.0	16.3189394034
1408227733834	80	4016875	0	433	22	37.447264911223606	-122.1607577048042	4818529	0.0	34.429136005
1408227734985	80	4016875	0	433	23	37.447264911223606	-122.1607577048042	4818529	0.0	34.429136005
1408227735852	80	4016875	0	433	23	37.44735331928735	-122.16093361673268	4818529	0.0	52.8296070313
1408227737854	80	4016875	0	433	23	37.44745881477509	-122.16110445884672	4818529	0.0	71.9509237295
1408227738988	80	4016875	0	433	24	37.44745881477509	-122.16110445884672	4818529	0.0	71.9509237295
1408227739854	80	4016875	0	433	24	37.44756546204037	-122.16124547541249	4818529	0.0	89.1498842419
1408227741827	80	4016875	0	433	24	37.447668835989084	-122.16136773781123	4818529	0.0	104.919268801
1408227742980	80	4016875	0	433	25	37.447668835989084	-122.16136773781123	4818529	0.0	104.919268801
1408227743860	80	4016875	0	433	25	37.447747940261145	-122.16147237534001	4818529	0.0	117.678919576
1408227745983	80	4016875	0	433	26	37.447747940261145	-122.16147237534001	4818529	0.0	117.678919576
1408227764990	80	4016875	0	433	27	37.447747940261145	-122.16147237534001	4818529	0.0	117.678919576
1408227771870	80	4016875	0	433	27	37.44780921568265	-122.16155672340042	4818529	0.0	127.776253858
1408227772121	80	4015000	0	435	27	37.44780921568265	-122.16155672340042	4818529	0.0	127.776253858
1408227786819	80	4015000	0	435	27	37.44787673332644	-122.161650060508	4818529	0.0	138.928165014
1408227788828	80	4015000	0	435	27	37.4479511912681	-122.16178978221964	4818529	0.0	153.799183108
1408227789984	80	4015000	0	435	28	37.4479511912681	-122.16178978221964	4818529	0.0	153.799183108
1408227790827	80	4015000	0	435	28	37.44804471426169	-122.1619501075444	4818529	0.0	171.377595957
1408227792819	80	4015000	0	435	28	37.448144569026795	-122.16211589595241	4818529	0.0	189.763243351
1408227792982	80	4015000	0	435	27	37.448144569026795	-122.16211589595241	4818529	0.0	189.763243351
1408227794842	80	4015000	0	435	27	37.448252959195855	-122.16227639621681	4818529	0.0	208.375493001
1408227794980	80	4015000	0	435	26	37.448252959195855	-122.16227639621681	4818529	0.0	208.375493001
1408227795992	80	4015000	0	435	24	37.448252959195855	-122.16227639621681	4818529	0.0	208.375493001
1408227796864	80	4015000	0	435	24	37.448358357700045	-122.16243878532553	4818529	0.0	226.904180315
1408227796984	80	4015000	0	435	23	37.448358357700045	-122.16243878532553	4818529	0.0	226.904180315
1408227798820	80	4015000	0	435	23	37.448461678601426	-122.16260481837892	4818529	0.0	245.541254796
1408227800820	80	4015000	0	435	23	37.44853943271597	-122.16272200924263	4818529	0.0	259.032047996
1408227800980	80	4015000	0	435	22	37.44853943271597	-122.16272200924263	4818529	0.0	259.032047996
1408227803825	80	4015000	0	435	22	37.44860621143179	-122.16282417902792	4818529	0.0	270.722307681
1408227803992	80	4015000	0	435	21	37.44860621143179	-122.16282417902792	4818529	0.0	270.722307681
1408227808986	80	4015000	0	435	20	37.44860621143179	-122.16282417902792	4818529	0.0	270.722307681
1408227810911	80	4015000	0	435	20	37.44861623973674	-122.16296860532641	4818529	0.0	283.55038896
1408227811988	80	4015000	0	435	18	37.44861623973674	-122.16296860532641	4818529	0.0	283.55038896
