Time	SOD	Volt	Current	Temp	Signal	Latitude	Longitude	CellID	Power	Distance
1408225693800	91	4100625	0	377	13	37.44622339835241	-122.16524379834378	4818529	0.0	8.90603385897
1408225695805	91	4100625	0	377	13	37.44615165836987	-122.16511982276626	4818529	0.0	22.4613082795
1408225697809	91	4100625	0	377	13	37.446074901980985	-122.16499177958727	4818529	0.0	36.6369751054
1408225699812	91	4100625	0	377	13	37.4459811385397	-122.16483512125812	4818529	0.0	53.9708727622
1408225701823	91	4100625	0	377	13	37.445878024023685	-122.16467148920148	4818529	0.0	72.427090623
1408225703825	91	4100625	0	377	13	37.44577052445621	-122.16451953231416	4818529	0.0	90.4036707155
1408225705817	91	4100625	0	377	13	37.445680448464365	-122.1643800902569	4818529	0.0	106.284414018
1408225706079	91	4100625	0	377	12	37.445680448464365	-122.1643800902569	4818529	0.0	106.284414018
1408225708078	91	4100625	0	377	11	37.445680448464365	-122.1643800902569	4818529	0.0	106.284414018
1408225708816	91	4100625	0	377	11	37.445620826153686	-122.16428892157303	4818529	0.0	116.718559873
1408225711074	91	4100625	0	377	11	37.445620826153686	-122.16428892157303	4818529	0.0	116.718559873
1408225715082	91	4100625	0	377	10	37.445620826153686	-122.16428892157303	4818529	0.0	116.718559873
1408225721074	91	4100625	0	377	10	37.445620826153686	-122.16428892157303	4818529	0.0	116.718559873
1408225721079	91	4100625	0	377	11	37.445620826153686	-122.16428892157303	4818529	0.0	116.718559873
1408225733888	90	4056250	0	434	11	37.445620826153686	-122.16428892157303	4818529	0.0	116.718559873
1408225742074	90	4056250	0	434	11	37.445620826153686	-122.16428892157303	4818529	0.0	116.718559873
1408225746075	90	4056250	0	434	11	37.445620826153686	-122.16428892157303	4818529	0.0	116.718559873
1408225754075	90	4056250	0	434	12	37.445620826153686	-122.16428892157303	4818529	0.0	116.718559873
1408225755815	90	4056250	0	434	12	37.445546629119825	-122.1641865838661	4818529	0.0	128.958642124
1408225757175	90	4056250	0	434	14	37.445546629119825	-122.1641865838661	4818529	0.0	128.958642124
1408225757813	90	4056250	0	434	14	37.44549419068911	-122.16409058075996	4818529	0.0	139.256251761
1408225758175	90	4056250	0	434	15	37.44549419068911	-122.16409058075996	4818529	0.0	139.256251761
1408225759806	90	4056250	0	434	15	37.4454283645013	-122.16397127720013	4818529	0.0	152.094736001
1408225761173	90	4056250	0	434	16	37.4454283645013	-122.16397127720013	4818529	0.0	152.094736001
1408225761830	90	4056250	0	434	16	37.44534522033671	-122.16383921806042	4818529	0.0	166.984765434
1408225763819	90	4056250	0	434	16	37.44526845864384	-122.16372374413999	4818529	0.0	180.288661599
1408225765820	90	4056250	0	434	16	37.44519404196187	-122.1636050059751	4818529	0.0	193.653298917
1408225766240	90	4056250	0	434	15	37.44519404196187	-122.1636050059751	4818529	0.0	193.653298917
1408225767815	90	4056250	0	434	15	37.44511236300377	-122.1634737647289	4818529	0.0	208.386008741
1408225768178	90	4056250	0	434	14	37.44511236300377	-122.1634737647289	4818529	0.0	208.386008741
1408225769826	90	4056250	0	434	14	37.445033374721305	-122.1633444553771	4818529	0.0	222.800807426
1408225771180	90	4056250	0	434	13	37.445033374721305	-122.1633444553771	4818529	0.0	222.800807426
1408225771818	90	4056250	0	434	13	37.4449682487706	-122.16323578173214	4818529	0.0	234.830868032
1408225773183	90	4056250	0	434	12	37.4449682487706	-122.16323578173214	4818529	0.0	234.830868032
1408225773818	90	4056250	0	434	12	37.44491672458998	-122.16314023158223	4818529	0.0	245.038299956
1408225784476	90	4056250	0	434	11	37.44491672458998	-122.16314023158223	4818529	0.0	245.038299956
1408225790258	89	4053750	0	430	11	37.44491672458998	-122.16314023158223	4818529	0.0	245.038299956
1408225793835	89	4053750	0	430	12	37.44491672458998	-122.16314023158223	4818529	0.0	245.038299956
1408225800122	89	4053750	0	430	13	37.44491672458998	-122.16314023158223	4818529	0.0	245.038299956
1408225802809	89	4053750	0	430	13	37.44486536969273	-122.16303684650116	4818529	0.0	255.817083111
1408225813814	89	4053750	0	430	13	37.44481540068308	-122.16292686978227	4818529	0.0	267.018216347
1408225814280	89	4053750	0	430	12	37.44481540068308	-122.16292686978227	4818529	0.0	267.018216347
1408225818810	89	4053750	0	430	12	37.44479907061969	-122.16279363166649	4818529	0.0	278.947010642
