Time	SOD	Volt	Current	Temp	Signal	Latitude	Longitude	CellID	Power	Distance
1408228099849	79	4017500	0	433	15	37.446805995518545	-122.16481313412113	4818529	0.0	11.5430678735
1408228101829	79	4017500	0	433	15	37.446725650098635	-122.16492563378951	4818529	0.0	24.9077889987
1408228103813	79	4017500	0	433	14	37.446725650098635	-122.16492563378951	4818529	0.0	24.9077889987
1408228103833	79	4017500	0	433	14	37.44660895018951	-122.16504481925634	4818529	0.0	41.6106007737
1408228105819	79	4017500	0	433	14	37.44649499489369	-122.16515764875696	4818529	0.0	57.7239294417
1408228106811	79	4017500	0	433	13	37.44649499489369	-122.16515764875696	4818529	0.0	57.7239294417
1408228107826	79	4017500	0	433	13	37.44640124137602	-122.16525611170671	4818529	0.0	71.295365508
1408228110872	79	4017500	0	433	13	37.44632569567585	-122.16536639234657	4818529	0.0	84.161183152
1408228114830	79	4017500	0	433	14	37.44632569567585	-122.16536639234657	4818529	0.0	84.161183152
1408228114898	79	4017500	0	433	14	37.446227959078556	-122.16532837355868	4818529	0.0	95.5182948925
