Distance	Power
16.5961842128	1.33504486061e+12
26.8250480249	1.29690432663e+12
43.0514325992	1.31620012356e+12
60.2129326654	1.46758730801e+12
77.5278217541	1.32145901392e+12
94.916192425	1.34844368165e+12
112.958589949	1.32632126465e+12
130.861418815	1.25479546969e+12
147.299215461	1.30016868523e+12
158.113125451	1.22926554937e+12
10.4203374686	1.2111587002e+12
23.3737277153	1.17796712797e+12
34.0556668736	1.11553236205e+12
44.1789486258	1.2420730549e+12
62.4537596068	1.18037422596e+12
79.5351167885	1.21297003003e+12
97.1849176456	1.2573177734e+12
114.903308485	1.2629030234e+12
134.330671647	1.25703757738e+12
150.472127922	1.20109437465e+12
160.802131846	1.21788505431e+12
11.7946753971	1.3111468793e+12
24.3087089557	1.29651567772e+12
40.8208642091	1.2351716533e+12
57.8861362455	1.31960724907e+12
75.6397690275	1.32276583247e+12
93.2377057898	1.50127970524e+12
110.156540997	1.35937352202e+12
127.43828038	1.34513071958e+12
143.651525979	1.38400845258e+12
154.289809699	1.2874002536e+12
